digraph DFA {
size="10,8";
ratio="fill";
nodesep=2.0;
	100 [ style="invis" ]
	100 -> 0
	0 -> 1 [ label="  k  " ]
	1 -> 2 [label="  l  "]
	1 -> 2 [label="  v  "]
	1 -> 2 [label="  h  "]
	2 -> 2 [label="  l  ", weight=0.5]
	2 -> 2 [label="  v  ", weight=0.5]
	2 -> 2 [label="  h  ", weight=0.5]
	2 -> 3 [label="  s  "]
}
